%YAML 1.1
%TAG !u! tag:unity3d.com,2011:
--- !u!74 &7400000
AnimationClip:
  m_ObjectHideFlags: 0
  m_CorrespondingSourceObject: {fileID: 0}
  m_PrefabInstance: {fileID: 0}
  m_PrefabAsset: {fileID: 0}
  m_Name: New Animation
  serializedVersion: 6
  m_Legacy: 0
  m_Compressed: 0
  m_UseHighQualityCurve: 1
  m_RotationCurves: []
  m_CompressedRotationCurves: []
  m_EulerCurves: []
  m_PositionCurves: []
  m_ScaleCurves: []
  m_FloatCurves: []
  m_PPtrCurves:
  - curve:
    - time: 0
      value: {fileID: -7945646241434910563, guid: 5cf819e432623e64d8b46bf2f6fde9ac, type: 3}
    - time: 0.016666668
      value: {fileID: 2439314185423891750, guid: 5cf819e432623e64d8b46bf2f6fde9ac, type: 3}
    - time: 0.033333335
      value: {fileID: -5739652533405759907, guid: 5cf819e432623e64d8b46bf2f6fde9ac, type: 3}
    - time: 0.05
      value: {fileID: -4237762528411767196, guid: 5cf819e432623e64d8b46bf2f6fde9ac, type: 3}
    - time: 0.06666667
      value: {fileID: -2864353362440129433, guid: 5cf819e432623e64d8b46bf2f6fde9ac, type: 3}
    - time: 0.083333336
      value: {fileID: -962261677154293407, guid: 5cf819e432623e64d8b46bf2f6fde9ac, type: 3}
    - time: 0.1
      value: {fileID: -4815348418933892659, guid: 5cf819e432623e64d8b46bf2f6fde9ac, type: 3}
    - time: 0.11666667
      value: {fileID: -9103509448537247609, guid: 5cf819e432623e64d8b46bf2f6fde9ac, type: 3}
    - time: 0.13333334
      value: {fileID: 4897384841811020951, guid: 5cf819e432623e64d8b46bf2f6fde9ac, type: 3}
    - time: 0.15
      value: {fileID: 8272693041755473534, guid: 5cf819e432623e64d8b46bf2f6fde9ac, type: 3}
    - time: 0.16666667
      value: {fileID: 1435567949690220634, guid: 5cf819e432623e64d8b46bf2f6fde9ac, type: 3}
    attribute: m_Sprite
    path: 
    classID: 212
    script: {fileID: 0}
  m_SampleRate: 60
  m_WrapMode: 0
  m_Bounds:
    m_Center: {x: 0, y: 0, z: 0}
    m_Extent: {x: 0, y: 0, z: 0}
  m_ClipBindingConstant:
    genericBindings:
    - serializedVersion: 2
      path: 0
      attribute: 0
      script: {fileID: 0}
      typeID: 212
      customType: 23
      isPPtrCurve: 1
    pptrCurveMapping:
    - {fileID: -7945646241434910563, guid: 5cf819e432623e64d8b46bf2f6fde9ac, type: 3}
    - {fileID: 2439314185423891750, guid: 5cf819e432623e64d8b46bf2f6fde9ac, type: 3}
    - {fileID: -5739652533405759907, guid: 5cf819e432623e64d8b46bf2f6fde9ac, type: 3}
    - {fileID: -4237762528411767196, guid: 5cf819e432623e64d8b46bf2f6fde9ac, type: 3}
    - {fileID: -2864353362440129433, guid: 5cf819e432623e64d8b46bf2f6fde9ac, type: 3}
    - {fileID: -962261677154293407, guid: 5cf819e432623e64d8b46bf2f6fde9ac, type: 3}
    - {fileID: -4815348418933892659, guid: 5cf819e432623e64d8b46bf2f6fde9ac, type: 3}
    - {fileID: -9103509448537247609, guid: 5cf819e432623e64d8b46bf2f6fde9ac, type: 3}
    - {fileID: 4897384841811020951, guid: 5cf819e432623e64d8b46bf2f6fde9ac, type: 3}
    - {fileID: 8272693041755473534, guid: 5cf819e432623e64d8b46bf2f6fde9ac, type: 3}
    - {fileID: 1435567949690220634, guid: 5cf819e432623e64d8b46bf2f6fde9ac, type: 3}
  m_AnimationClipSettings:
    serializedVersion: 2
    m_AdditiveReferencePoseClip: {fileID: 0}
    m_AdditiveReferencePoseTime: 0
    m_StartTime: 0
    m_StopTime: 0.18333334
    m_OrientationOffsetY: 0
    m_Level: 0
    m_CycleOffset: 0
    m_HasAdditiveReferencePose: 0
    m_LoopTime: 1
    m_LoopBlend: 0
    m_LoopBlendOrientation: 0
    m_LoopBlendPositionY: 0
    m_LoopBlendPositionXZ: 0
    m_KeepOriginalOrientation: 0
    m_KeepOriginalPositionY: 1
    m_KeepOriginalPositionXZ: 0
    m_HeightFromFeet: 0
    m_Mirror: 0
  m_EditorCurves: []
  m_EulerEditorCurves: []
  m_HasGenericRootTransform: 0
  m_HasMotionFloatCurves: 0
  m_Events:
  - time: 0.16666667
    functionName: DestroyRightAway
    data: 
    objectReferenceParameter: {fileID: 0}
    floatParameter: 0
    intParameter: 0
    messageOptions: 0
