%YAML 1.1
%TAG !u! tag:unity3d.com,2011:
--- !u!74 &7400000
AnimationClip:
  m_ObjectHideFlags: 0
  m_CorrespondingSourceObject: {fileID: 0}
  m_PrefabInstance: {fileID: 0}
  m_PrefabAsset: {fileID: 0}
  m_Name: Idle-Blinking
  serializedVersion: 6
  m_Legacy: 0
  m_Compressed: 0
  m_UseHighQualityCurve: 1
  m_RotationCurves: []
  m_CompressedRotationCurves: []
  m_EulerCurves: []
  m_PositionCurves: []
  m_ScaleCurves: []
  m_FloatCurves: []
  m_PPtrCurves:
  - curve:
    - time: 0
      value: {fileID: 21300000, guid: f895c2033d42d6d45b1e483a50a4186b, type: 3}
    - time: 0.083333336
      value: {fileID: 21300000, guid: cff08bada64b6fa43b6a70e4f2f4a02d, type: 3}
    - time: 0.16666667
      value: {fileID: 21300000, guid: 983b12edc6e156b4cbb580c37c88026f, type: 3}
    - time: 0.25
      value: {fileID: 21300000, guid: 0dae0056d4ec6cc46babb24f1d8f7677, type: 3}
    - time: 0.33333334
      value: {fileID: 21300000, guid: f2051663d3ad89742a05250fcf324816, type: 3}
    - time: 0.41666666
      value: {fileID: 21300000, guid: 5389e58dee8ceb54090b00cb8e67398e, type: 3}
    - time: 0.5
      value: {fileID: 21300000, guid: 2b973e1069380454ca780caaf437e3a6, type: 3}
    - time: 0.5833333
      value: {fileID: 21300000, guid: 3b98526f8aa24f946b7527735740ad20, type: 3}
    - time: 0.6666667
      value: {fileID: 21300000, guid: 10977e4a8310d17409c9c26ba42efe57, type: 3}
    - time: 0.75
      value: {fileID: 21300000, guid: a696212c13949d740890ed271132224b, type: 3}
    - time: 0.8333333
      value: {fileID: 21300000, guid: 6bd923c469ec57d46a7e34701dbd6e99, type: 3}
    - time: 0.9166667
      value: {fileID: 21300000, guid: 9787abea9245d444aaa71f89b40a3563, type: 3}
    - time: 1
      value: {fileID: 21300000, guid: 577ae85789b2f384e8638bfdfea41bbf, type: 3}
    - time: 1.0833334
      value: {fileID: 21300000, guid: 4c68094b80e9c68488ec44c5963da2d0, type: 3}
    - time: 1.1666666
      value: {fileID: 21300000, guid: 6e41b3485d5011b43931b42b28feb0c9, type: 3}
    - time: 1.25
      value: {fileID: 21300000, guid: f0a1a2678d28e104a953abbc370ff176, type: 3}
    - time: 1.3333334
      value: {fileID: 21300000, guid: d37778100ac98ad4d9623f1a7abad795, type: 3}
    - time: 1.4166666
      value: {fileID: 21300000, guid: 2a06b3c515d658246bb2256cab4bf0f7, type: 3}
    attribute: m_Sprite
    path: 
    classID: 212
    script: {fileID: 0}
  m_SampleRate: 12
  m_WrapMode: 0
  m_Bounds:
    m_Center: {x: 0, y: 0, z: 0}
    m_Extent: {x: 0, y: 0, z: 0}
  m_ClipBindingConstant:
    genericBindings:
    - serializedVersion: 2
      path: 0
      attribute: 0
      script: {fileID: 0}
      typeID: 212
      customType: 23
      isPPtrCurve: 1
    pptrCurveMapping:
    - {fileID: 21300000, guid: f895c2033d42d6d45b1e483a50a4186b, type: 3}
    - {fileID: 21300000, guid: cff08bada64b6fa43b6a70e4f2f4a02d, type: 3}
    - {fileID: 21300000, guid: 983b12edc6e156b4cbb580c37c88026f, type: 3}
    - {fileID: 21300000, guid: 0dae0056d4ec6cc46babb24f1d8f7677, type: 3}
    - {fileID: 21300000, guid: f2051663d3ad89742a05250fcf324816, type: 3}
    - {fileID: 21300000, guid: 5389e58dee8ceb54090b00cb8e67398e, type: 3}
    - {fileID: 21300000, guid: 2b973e1069380454ca780caaf437e3a6, type: 3}
    - {fileID: 21300000, guid: 3b98526f8aa24f946b7527735740ad20, type: 3}
    - {fileID: 21300000, guid: 10977e4a8310d17409c9c26ba42efe57, type: 3}
    - {fileID: 21300000, guid: a696212c13949d740890ed271132224b, type: 3}
    - {fileID: 21300000, guid: 6bd923c469ec57d46a7e34701dbd6e99, type: 3}
    - {fileID: 21300000, guid: 9787abea9245d444aaa71f89b40a3563, type: 3}
    - {fileID: 21300000, guid: 577ae85789b2f384e8638bfdfea41bbf, type: 3}
    - {fileID: 21300000, guid: 4c68094b80e9c68488ec44c5963da2d0, type: 3}
    - {fileID: 21300000, guid: 6e41b3485d5011b43931b42b28feb0c9, type: 3}
    - {fileID: 21300000, guid: f0a1a2678d28e104a953abbc370ff176, type: 3}
    - {fileID: 21300000, guid: d37778100ac98ad4d9623f1a7abad795, type: 3}
    - {fileID: 21300000, guid: 2a06b3c515d658246bb2256cab4bf0f7, type: 3}
  m_AnimationClipSettings:
    serializedVersion: 2
    m_AdditiveReferencePoseClip: {fileID: 0}
    m_AdditiveReferencePoseTime: 0
    m_StartTime: 0
    m_StopTime: 1.5
    m_OrientationOffsetY: 0
    m_Level: 0
    m_CycleOffset: 0
    m_HasAdditiveReferencePose: 0
    m_LoopTime: 1
    m_LoopBlend: 0
    m_LoopBlendOrientation: 0
    m_LoopBlendPositionY: 0
    m_LoopBlendPositionXZ: 0
    m_KeepOriginalOrientation: 0
    m_KeepOriginalPositionY: 1
    m_KeepOriginalPositionXZ: 0
    m_HeightFromFeet: 0
    m_Mirror: 0
  m_EditorCurves: []
  m_EulerEditorCurves: []
  m_HasGenericRootTransform: 0
  m_HasMotionFloatCurves: 0
  m_Events: []
