%YAML 1.1
%TAG !u! tag:unity3d.com,2011:
--- !u!114 &11400000
MonoBehaviour:
  m_ObjectHideFlags: 0
  m_CorrespondingSourceObject: {fileID: 0}
  m_PrefabInstance: {fileID: 0}
  m_PrefabAsset: {fileID: 0}
  m_GameObject: {fileID: 0}
  m_Enabled: 1
  m_EditorHideFlags: 0
  m_Script: {fileID: 11500000, guid: 04d436a3c5876864fa9495594fb4569c, type: 3}
  m_Name: Teleport
  m_EditorClassIdentifier: 
  mpCost: 5
  icon: {fileID: 21300000, guid: 529696f0d4f1b6e46b3c2cc3eacac102, type: 3}
  clip: {fileID: 0}
  SkillEffect: {fileID: 652267929540114892, guid: cf3c0a7db3fce694697614812c01f570, type: 3}
  price: 100
  distance: 10
