%YAML 1.1
%TAG !u! tag:unity3d.com,2011:
--- !u!74 &7400000
AnimationClip:
  m_ObjectHideFlags: 0
  m_CorrespondingSourceObject: {fileID: 0}
  m_PrefabInstance: {fileID: 0}
  m_PrefabAsset: {fileID: 0}
  m_Name: Hurt
  serializedVersion: 6
  m_Legacy: 0
  m_Compressed: 0
  m_UseHighQualityCurve: 1
  m_RotationCurves: []
  m_CompressedRotationCurves: []
  m_EulerCurves: []
  m_PositionCurves: []
  m_ScaleCurves: []
  m_FloatCurves: []
  m_PPtrCurves:
  - curve:
    - time: 0
      value: {fileID: 21300000, guid: 7a77cfc0756376942abc77ddd7f2bc65, type: 3}
    - time: 0.083333336
      value: {fileID: 21300000, guid: 35d84a325c7d13f4290377afd2a7be3c, type: 3}
    - time: 0.16666667
      value: {fileID: 21300000, guid: cde96fb8c86a0374ab6d827111dfd24e, type: 3}
    - time: 0.25
      value: {fileID: 21300000, guid: 8f4e529f3ee60904a8d70511ea9da1a3, type: 3}
    - time: 0.33333334
      value: {fileID: 21300000, guid: db728dbdfe49bf74ba019a8a310d31c1, type: 3}
    - time: 0.41666666
      value: {fileID: 21300000, guid: f40c62b84ce2fec43b4e5c499e5294d3, type: 3}
    - time: 0.5
      value: {fileID: 21300000, guid: 27d7848ef4fe848429646876ccd9e17f, type: 3}
    - time: 0.5833333
      value: {fileID: 21300000, guid: 0cc3999dd620eb644828d988146e7d1e, type: 3}
    - time: 0.6666667
      value: {fileID: 21300000, guid: 7bc8953c01ad3974e8ae93cf1d92f1dd, type: 3}
    - time: 0.75
      value: {fileID: 21300000, guid: 9834927c6a1ae74458e5ee69ef06275a, type: 3}
    - time: 0.8333333
      value: {fileID: 21300000, guid: 9ef773c5457b7724d94be13001d25f1f, type: 3}
    - time: 0.9166667
      value: {fileID: 21300000, guid: 16758a1eb6d93ac4e8eabde7cefce462, type: 3}
    attribute: m_Sprite
    path: 
    classID: 212
    script: {fileID: 0}
  m_SampleRate: 12
  m_WrapMode: 0
  m_Bounds:
    m_Center: {x: 0, y: 0, z: 0}
    m_Extent: {x: 0, y: 0, z: 0}
  m_ClipBindingConstant:
    genericBindings:
    - serializedVersion: 2
      path: 0
      attribute: 0
      script: {fileID: 0}
      typeID: 212
      customType: 23
      isPPtrCurve: 1
    pptrCurveMapping:
    - {fileID: 21300000, guid: 7a77cfc0756376942abc77ddd7f2bc65, type: 3}
    - {fileID: 21300000, guid: 35d84a325c7d13f4290377afd2a7be3c, type: 3}
    - {fileID: 21300000, guid: cde96fb8c86a0374ab6d827111dfd24e, type: 3}
    - {fileID: 21300000, guid: 8f4e529f3ee60904a8d70511ea9da1a3, type: 3}
    - {fileID: 21300000, guid: db728dbdfe49bf74ba019a8a310d31c1, type: 3}
    - {fileID: 21300000, guid: f40c62b84ce2fec43b4e5c499e5294d3, type: 3}
    - {fileID: 21300000, guid: 27d7848ef4fe848429646876ccd9e17f, type: 3}
    - {fileID: 21300000, guid: 0cc3999dd620eb644828d988146e7d1e, type: 3}
    - {fileID: 21300000, guid: 7bc8953c01ad3974e8ae93cf1d92f1dd, type: 3}
    - {fileID: 21300000, guid: 9834927c6a1ae74458e5ee69ef06275a, type: 3}
    - {fileID: 21300000, guid: 9ef773c5457b7724d94be13001d25f1f, type: 3}
    - {fileID: 21300000, guid: 16758a1eb6d93ac4e8eabde7cefce462, type: 3}
  m_AnimationClipSettings:
    serializedVersion: 2
    m_AdditiveReferencePoseClip: {fileID: 0}
    m_AdditiveReferencePoseTime: 0
    m_StartTime: 0
    m_StopTime: 1
    m_OrientationOffsetY: 0
    m_Level: 0
    m_CycleOffset: 0
    m_HasAdditiveReferencePose: 0
    m_LoopTime: 1
    m_LoopBlend: 0
    m_LoopBlendOrientation: 0
    m_LoopBlendPositionY: 0
    m_LoopBlendPositionXZ: 0
    m_KeepOriginalOrientation: 0
    m_KeepOriginalPositionY: 1
    m_KeepOriginalPositionXZ: 0
    m_HeightFromFeet: 0
    m_Mirror: 0
  m_EditorCurves: []
  m_EulerEditorCurves: []
  m_HasGenericRootTransform: 0
  m_HasMotionFloatCurves: 0
  m_Events:
  - time: 0.8333333
    functionName: CallAnimEnd
    data: 
    objectReferenceParameter: {fileID: 0}
    floatParameter: 0
    intParameter: 0
    messageOptions: 0
