%YAML 1.1
%TAG !u! tag:unity3d.com,2011:
--- !u!74 &7400000
AnimationClip:
  m_ObjectHideFlags: 0
  m_CorrespondingSourceObject: {fileID: 0}
  m_PrefabInstance: {fileID: 0}
  m_PrefabAsset: {fileID: 0}
  m_Name: Hurt
  serializedVersion: 6
  m_Legacy: 0
  m_Compressed: 0
  m_UseHighQualityCurve: 1
  m_RotationCurves: []
  m_CompressedRotationCurves: []
  m_EulerCurves: []
  m_PositionCurves: []
  m_ScaleCurves: []
  m_FloatCurves: []
  m_PPtrCurves:
  - curve:
    - time: 0
      value: {fileID: 21300000, guid: 25a63718ef079c24f901dde317e15934, type: 3}
    - time: 0.083333336
      value: {fileID: 21300000, guid: f999fcb788b45d04bb6b9e0e57782ebc, type: 3}
    - time: 0.16666667
      value: {fileID: 21300000, guid: c95f3cbe6b30dbe48baf98407d063c62, type: 3}
    - time: 0.25
      value: {fileID: 21300000, guid: c8f0b6fb994b64b4db1c3b13e57773f9, type: 3}
    - time: 0.33333334
      value: {fileID: 21300000, guid: d15a8dfcfc825494f9043758e560334a, type: 3}
    - time: 0.41666666
      value: {fileID: 21300000, guid: b0a76f556c560134eb0e22128e61bf8f, type: 3}
    - time: 0.5
      value: {fileID: 21300000, guid: d1ffcd89cf3980d48bff48667936a6a0, type: 3}
    - time: 0.5833333
      value: {fileID: 21300000, guid: 2732d3aeb3ab51543a0514fc9081dd25, type: 3}
    - time: 0.6666667
      value: {fileID: 21300000, guid: 30e8d46bceeac1d4db05c9bcf289df02, type: 3}
    - time: 0.75
      value: {fileID: 21300000, guid: ac67bf1f16f38614d9dddd792e0ca570, type: 3}
    - time: 0.8333333
      value: {fileID: 21300000, guid: 2b29717e8189b7b44b688420e794066c, type: 3}
    - time: 0.9166667
      value: {fileID: 21300000, guid: 455e33a39c1a38d4498c2ebdafcada2e, type: 3}
    attribute: m_Sprite
    path: 
    classID: 212
    script: {fileID: 0}
  m_SampleRate: 12
  m_WrapMode: 0
  m_Bounds:
    m_Center: {x: 0, y: 0, z: 0}
    m_Extent: {x: 0, y: 0, z: 0}
  m_ClipBindingConstant:
    genericBindings:
    - serializedVersion: 2
      path: 0
      attribute: 0
      script: {fileID: 0}
      typeID: 212
      customType: 23
      isPPtrCurve: 1
    pptrCurveMapping:
    - {fileID: 21300000, guid: 25a63718ef079c24f901dde317e15934, type: 3}
    - {fileID: 21300000, guid: f999fcb788b45d04bb6b9e0e57782ebc, type: 3}
    - {fileID: 21300000, guid: c95f3cbe6b30dbe48baf98407d063c62, type: 3}
    - {fileID: 21300000, guid: c8f0b6fb994b64b4db1c3b13e57773f9, type: 3}
    - {fileID: 21300000, guid: d15a8dfcfc825494f9043758e560334a, type: 3}
    - {fileID: 21300000, guid: b0a76f556c560134eb0e22128e61bf8f, type: 3}
    - {fileID: 21300000, guid: d1ffcd89cf3980d48bff48667936a6a0, type: 3}
    - {fileID: 21300000, guid: 2732d3aeb3ab51543a0514fc9081dd25, type: 3}
    - {fileID: 21300000, guid: 30e8d46bceeac1d4db05c9bcf289df02, type: 3}
    - {fileID: 21300000, guid: ac67bf1f16f38614d9dddd792e0ca570, type: 3}
    - {fileID: 21300000, guid: 2b29717e8189b7b44b688420e794066c, type: 3}
    - {fileID: 21300000, guid: 455e33a39c1a38d4498c2ebdafcada2e, type: 3}
  m_AnimationClipSettings:
    serializedVersion: 2
    m_AdditiveReferencePoseClip: {fileID: 0}
    m_AdditiveReferencePoseTime: 0
    m_StartTime: 0
    m_StopTime: 1
    m_OrientationOffsetY: 0
    m_Level: 0
    m_CycleOffset: 0
    m_HasAdditiveReferencePose: 0
    m_LoopTime: 1
    m_LoopBlend: 0
    m_LoopBlendOrientation: 0
    m_LoopBlendPositionY: 0
    m_LoopBlendPositionXZ: 0
    m_KeepOriginalOrientation: 0
    m_KeepOriginalPositionY: 1
    m_KeepOriginalPositionXZ: 0
    m_HeightFromFeet: 0
    m_Mirror: 0
  m_EditorCurves: []
  m_EulerEditorCurves: []
  m_HasGenericRootTransform: 0
  m_HasMotionFloatCurves: 0
  m_Events:
  - time: 0.8333333
    functionName: CallAnimEnd
    data: 
    objectReferenceParameter: {fileID: 0}
    floatParameter: 0
    intParameter: 0
    messageOptions: 0
